adc/adc.vcd
$date
	Mon Jul 31 11:11:08 2023
$end
$version
	Icarus Verilog
$end
$timescale
	1s
$end
$scope module tb $end
$var wire 1 ! sample $end
$var wire 1 " fifo_full $end
$var wire 1 # fifo_above $end
$var wire 1 $ eoc $end
$var wire 8 % data [7:0] $end
$var wire 1 & cmp $end
$var wire 3 ' ch_sel_out [2:0] $end
$var reg 3 ( ch_sel_in [2:0] $end
$var reg 1 ) clk $end
$var reg 8 * clkdiv [7:0] $end
$var reg 1 + en $end
$var reg 4 , fifo_threshold [3:0] $end
$var reg 1 - rd $end
$var reg 1 . rst_n $end
$var reg 8 / sample_div [7:0] $end
$var reg 5 0 seq0 [4:0] $end
$var reg 5 1 seq1 [4:0] $end
$var reg 5 2 seq2 [4:0] $end
$var reg 5 3 seq3 [4:0] $end
$var reg 5 4 seq4 [4:0] $end
$var reg 5 5 seq5 [4:0] $end
$var reg 5 6 seq6 [4:0] $end
$var reg 5 7 seq7 [4:0] $end
$var reg 1 8 seq_en $end
$var reg 1 9 soc $end
$var reg 4 : swidth [3:0] $end
$var real 1 ; vref $end
$var real 1 < vin $end
$scope module adc $end
$var wire 3 = ch_sel_in [2:0] $end
$var wire 3 > channel [2:0] $end
$var wire 1 ) clk $end
$var wire 8 ? clkdiv [7:0] $end
$var wire 8 @ data [7:0] $end
$var wire 1 + en $end
$var wire 1 A fifo_rd $end
$var wire 4 B fifo_threshold [3:0] $end
$var wire 1 C fifo_wr $end
$var wire 1 - rd $end
$var wire 1 . rst_n $end
$var wire 8 D sample_div [7:0] $end
$var wire 5 E seq0 [4:0] $end
$var wire 5 F seq1 [4:0] $end
$var wire 5 G seq2 [4:0] $end
$var wire 5 H seq3 [4:0] $end
$var wire 5 I seq4 [4:0] $end
$var wire 5 J seq5 [4:0] $end
$var wire 5 K seq6 [4:0] $end
$var wire 5 L seq7 [4:0] $end
$var wire 1 8 seq_en $end
$var wire 1 9 soc $end
$var wire 1 M soc_edge $end
$var wire 4 N swidth [3:0] $end
$var wire 1 O start_of_conv $end
$var wire 1 P seq_skip $end
$var wire 1 Q seq_end $end
$var wire 3 R seq_ch [2:0] $end
$var wire 5 S seq [4:0] $end
$var wire 1 T sample_en $end
$var wire 1 ! sample $end
$var wire 8 U fifo_wdata [7:0] $end
$var wire 8 V fifo_rdata [7:0] $end
$var wire 4 W fifo_level [3:0] $end
$var wire 1 " fifo_full $end
$var wire 1 X fifo_empty $end
$var wire 1 # fifo_above $end
$var wire 1 $ eoc $end
$var wire 1 & cmp $end
$var wire 1 Y clken $end
$var wire 3 Z ch_sel_out [2:0] $end
$var reg 1 [ fifo_wr_reg $end
$var reg 2 \ last_soc [1:0] $end
$var reg 3 ] seq_ctr [2:0] $end
$var reg 1 ^ seq_soc $end
$scope module ADCFIFO $end
$var wire 1 ) clk $end
$var wire 1 X empty $end
$var wire 1 " full $end
$var wire 8 _ r_data [7:0] $end
$var wire 1 A rd $end
$var wire 1 . rst_n $end
$var wire 1 ` w_en $end
$var wire 1 C wr $end
$var wire 8 a w_data [7:0] $end
$var wire 4 b level [3:0] $end
$var reg 1 c empty_next $end
$var reg 1 d empty_reg $end
$var reg 1 e full_next $end
$var reg 1 f full_reg $end
$var reg 4 g level_next [3:0] $end
$var reg 4 h level_reg [3:0] $end
$var reg 4 i r_ptr_next [3:0] $end
$var reg 4 j r_ptr_reg [3:0] $end
$var reg 4 k r_ptr_succ [3:0] $end
$var reg 4 l w_ptr_next [3:0] $end
$var reg 4 m w_ptr_reg [3:0] $end
$var reg 4 n w_ptr_succ [3:0] $end
$upscope $end
$scope module CDIV $end
$var wire 1 ) clk $end
$var wire 8 o clkdiv [7:0] $end
$var wire 1 Y clko $end
$var wire 1 + en $end
$var wire 1 . rst_n $end
$var wire 1 p clkdiv_match $end
$var reg 8 q clkdiv_ctr [7:0] $end
$var reg 1 Y clken $end
$upscope $end
$scope module SAR $end
$var wire 1 ) clk $end
$var wire 8 r data [7:0] $end
$var wire 1 Y en $end
$var wire 1 . rst_n $end
$var wire 1 M soc $end
$var wire 4 s swidth [3:0] $end
$var wire 1 t sample_ctr_match $end
$var wire 1 ! sample $end
$var wire 8 u next [7:0] $end
$var wire 1 $ eoc $end
$var wire 8 v current [7:0] $end
$var wire 1 & cmp $end
$var reg 2 w nstate [1:0] $end
$var reg 8 x result [7:0] $end
$var reg 4 y sample_ctr [3:0] $end
$var reg 8 z shift [7:0] $end
$var reg 2 { state [1:0] $end
$upscope $end
$scope module SDIV $end
$var wire 1 ) clk $end
$var wire 8 | clkdiv [7:0] $end
$var wire 1 T clko $end
$var wire 1 } en $end
$var wire 1 . rst_n $end
$var wire 1 ~ clkdiv_match $end
$var reg 8 !" clkdiv_ctr [7:0] $end
$var reg 1 "" clken $end
$upscope $end
$upscope $end
$scope module adcana $end
$var wire 8 #" data [7:0] $end
$var wire 1 ! sample $end
$var wire 1 & cmp $end
$var real 1 $" vin $end
$var real 1 %" vref $end
$var real 1 &" vdac $end
$var real 1 '" step $end
$upscope $end
$upscope $end
$enddefinitions $end
#0
$dumpvars
r0.012890625 '"
r0 &"
r3.3 %"
r0 $"
bx #"
0""
b0 !"
0~
0}
b10000 |
b0 {
bx z
b0 y
bx x
b0 w
bx v
b0xxxxxxx u
0t
b10 s
bx r
b0 q
0p
b10 o
b1 n
b0 m
b0 l
b1 k
b0 j
b0 i
b0 h
b0 g
0f
0e
1d
1c
b0 b
bx a
0`
bx _
0^
b111 ]
b0 \
0[
bx Z
0Y
1X
b0 W
bx V
bx U
0T
bx S
bx R
xQ
xP
0O
b10 N
0M
bx L
bx K
bx J
bx I
b10011 H
b10 G
b1 F
b0 E
b10000 D
0C
b101 B
0A
bx @
b10 ?
bz >
b111 =
r0 <
r3.3 ;
b10 :
09
18
bx 7
bx 6
bx 5
bx 4
b10011 3
b10 2
b1 1
b0 0
b10000 /
0.
0-
b101 ,
1+
b10 *
0)
b111 (
bx '
0&
bx %
0$
0#
0"
0!
$end
#5
1)
#10
0)
#15
1)
#20
0)
#25
1)
#30
0)
#35
1)
#40
0)
#45
1)
#50
0)
#55
1)
#60
0)
#65
1)
#70
0)
#75
1)
#80
0)
#85
1)
#90
0)
#95
1)
#100
0)
#105
b1 q
1.
1)
#110
0)
#115
1p
b10 q
1)
#120
0)
#125
1}
1Y
0p
b0 q
1)
#130
0)
#135
b1111111 v
0}
b1000000 u
b1 q
0Y
b1 !"
b10000000 U
b10000000 a
b10000000 r
b10000000 x
b10000000 z
1)
#140
0)
#145
1p
b10 q
1)
#150
0)
#155
1}
0p
b0 q
1Y
1)
#160
0)
#165
0}
b10 !"
0Y
b1 q
1)
#170
0)
#175
1p
b10 q
1)
#180
0)
#185
1}
1Y
0p
b0 q
1)
#190
0)
#195
0}
b1 q
0Y
b11 !"
1)
#200
0)
#205
1p
b10 q
1)
#210
0)
#215
1}
0p
b0 q
1Y
1)
#220
0)
#225
0}
b100 !"
0Y
b1 q
1)
#230
0)
#235
1p
b10 q
1)
#240
0)
#245
1}
1Y
0p
b0 q
1)
#250
0)
#255
0}
b1 q
0Y
b101 !"
1)
#260
0)
#265
1p
b10 q
1)
#270
0)
#275
1}
0p
b0 q
1Y
1)
#280
0)
#285
0}
b110 !"
0Y
b1 q
1)
#290
0)
#295
1p
b10 q
1)
#300
0)
#305
1}
1Y
0p
b0 q
1)
#310
0)
#315
0}
b1 q
0Y
b111 !"
1)
#320
0)
#325
1p
b10 q
1)
#330
0)
#335
1}
0p
b0 q
1Y
1)
#340
0)
#345
0}
b1000 !"
0Y
b1 q
1)
#350
0)
#355
1p
b10 q
1)
#360
0)
#365
1}
1Y
0p
b0 q
1)
#370
0)
#375
0}
b1 q
0Y
b1001 !"
1)
#380
0)
#385
1p
b10 q
1)
#390
0)
#395
1}
0p
b0 q
1Y
1)
#400
0)
#405
0}
b1010 !"
0Y
b1 q
1)
#410
0)
#415
1p
b10 q
1)
#420
0)
#425
1}
1Y
0p
b0 q
1)
#430
0)
#435
0}
b1 q
0Y
b1011 !"
1)
#440
0)
#445
1p
b10 q
1)
#450
0)
#455
1}
0p
b0 q
1Y
1)
#460
0)
#465
0}
b1100 !"
0Y
b1 q
1)
#470
0)
#475
1p
b10 q
1)
#480
0)
#485
1}
1Y
0p
b0 q
1)
#490
0)
#495
0}
b1 q
0Y
b1101 !"
1)
#500
0)
#505
1p
b10 q
1)
#510
0)
#515
1}
0p
b0 q
1Y
1)
#520
0)
#525
0}
b1110 !"
0Y
b1 q
1)
#530
0)
#535
1p
b10 q
1)
#540
0)
#545
1}
1Y
0p
b0 q
1)
#550
0)
#555
0}
b1 q
0Y
b1111 !"
1)
#560
0)
#565
1p
b10 q
1)
#570
0)
#575
1}
0p
b0 q
1Y
1)
#580
0)
#585
0}
1~
b10000 !"
0Y
b1 q
1)
#590
0)
#595
1p
b10 q
0~
b0 !"
1T
1""
1)
#600
0)
#605
b11111111 v
1&
r1.5 <
r1.5 $"
b0 '
b0 Z
b0 R
0Q
0P
b0 S
1}
b0 ]
0T
0""
1Y
0p
b0 q
b1 w
1M
1O
1^
1)
#610
0)
#615
0}
b1 q
0Y
b1 !"
1!
b1 {
b1 \
b1 w
0M
0O
0^
1)
#620
0)
#625
1p
b10 q
1)
#630
0)
#635
1}
0p
b0 q
1Y
1)
#640
0)
#645
0}
b10 \
b1 y
b10 !"
0Y
b1 q
1)
#650
0)
#655
1p
b10 q
1)
#660
0)
#665
1}
1Y
0p
b0 q
1)
#670
0)
#675
0}
b10 w
b1 q
0Y
b11 !"
1t
b10 y
b0 \
1)
#680
0)
#685
1p
b10 q
1)
#690
0)
#695
1}
0p
b0 q
1Y
1)
#700
0)
#705
0}
0t
b0 y
0!
b10 {
b100 !"
0Y
b1 q
1)
#710
0)
#715
1p
b10 q
1)
#720
0)
#725
1}
1Y
0p
b0 q
1)
#730
0)
#735
0}
b100000 u
b1 q
0Y
b101 !"
b11000000 U
b11000000 a
b11000000 r
b11000000 x
b1000000 z
1)
#740
0)
#745
1p
b10 q
1)
#750
0)
#755
1}
0p
b0 q
1Y
1)
#760
0)
#765
0}
b10000 u
b110 !"
0Y
b1 q
b100000 z
b11100000 U
b11100000 a
b11100000 r
b11100000 x
1)
#770
0)
#775
1p
b10 q
1)
#780
0)
#785
1}
1Y
0p
b0 q
1)
#790
0)
#795
0}
b1000 u
b1 q
0Y
b111 !"
b11110000 U
b11110000 a
b11110000 r
b11110000 x
b10000 z
1)
#800
0)
#805
1p
b10 q
1)
#810
0)
#815
1}
0p
b0 q
1Y
1)
#820
0)
#825
0}
b100 u
b1000 !"
0Y
b1 q
b1000 z
b11111000 U
b11111000 a
b11111000 r
b11111000 x
1)
#830
0)
#835
1p
b10 q
1)
#840
0)
#845
1}
1Y
0p
b0 q
1)
#850
0)
#855
0}
b10 u
b1 q
0Y
b1001 !"
b11111100 U
b11111100 a
b11111100 r
b11111100 x
b100 z
1)
#860
0)
#865
1p
b10 q
1)
#870
0)
#875
1}
0p
b0 q
1Y
1)
#880
0)
#885
0}
b1 u
b1010 !"
0Y
b1 q
b10 z
b11111110 U
b11111110 a
b11111110 r
b11111110 x
1)
#890
0)
#895
1p
b10 q
1)
#900
0)
#905
1}
1Y
0p
b0 q
1)
#910
0)
#915
0}
b11 w
b0 u
b1 q
0Y
b1011 !"
b11111111 U
b11111111 a
b11111111 r
b11111111 x
b1 z
1)
#920
0)
#925
1p
b10 q
1)
#930
0)
#935
1}
0p
b0 q
1Y
1)
#940
0)
#945
b1 g
0c
b1 l
1`
1C
0}
b0 w
1$
b11 {
b1100 !"
0Y
b1 q
b0 z
1)
#950
0)
#955
0`
0C
0&
b1 g
b1 l
b10 n
1p
b10 q
b1 W
b1 b
b1 h
0X
0d
b1 m
1[
r3.287109375 &"
b11111111 %
b11111111 @
b11111111 #"
b11111111 V
b11111111 _
1)
#960
0)
#965
1}
1Y
0p
b0 q
1)
#970
0)
#975
0}
b1 q
0Y
b1101 !"
0$
b0 {
1)
#980
0)
#985
0[
1p
b10 q
1)
#990
0)
#995
1}
0p
b0 q
1Y
1)
#1000
0)
#1005
b1111111 v
0}
b1000000 u
b1110 !"
0Y
b1 q
b10000000 z
b10000000 U
b10000000 a
b10000000 r
b10000000 x
1)
#1010
0)
#1015
1p
b10 q
1)
#1020
0)
#1025
1}
1Y
0p
b0 q
1)
#1030
0)
#1035
0}
b1 q
0Y
b1111 !"
1)
#1040
0)
#1045
1p
b10 q
1)
#1050
0)
#1055
1}
0p
b0 q
1Y
1)
#1060
0)
#1065
0}
1~
b10000 !"
0Y
b1 q
1)
#1070
0)
#1075
1p
b10 q
0~
b0 !"
1T
1""
1)
#1080
0)
#1085
r1.8 <
r1.8 $"
b1 '
b1 Z
b1 R
b1 S
1}
b1 ]
0T
0""
1Y
0p
b0 q
b1 w
1M
1O
1^
1)
#1090
0)
#1095
0}
b1 q
0Y
b1 !"
1!
b1 {
b1 \
b1 w
0M
0O
0^
1)
#1100
0)
#1105
1p
b10 q
1)
#1110
0)
#1115
1}
0p
b0 q
1Y
1)
#1120
0)
#1125
0}
b10 \
b1 y
b10 !"
0Y
b1 q
1)
#1130
0)
#1135
1p
b10 q
1)
#1140
0)
#1145
1}
1Y
0p
b0 q
1)
#1150
0)
#1155
0}
b10 w
b1 q
0Y
b11 !"
1t
b10 y
b0 \
1)
#1160
0)
#1165
1p
b10 q
1)
#1170
0)
#1175
1}
0p
b0 q
1Y
1)
#1180
0)
#1185
0}
0t
b0 y
0!
b10 {
b100 !"
0Y
b1 q
1)
#1190
0)
#1195
1p
b10 q
1)
#1200
0)
#1205
1}
1Y
0p
b0 q
1)
#1210
0)
#1215
b10111111 v
0}
b100000 u
b1 q
0Y
b101 !"
b1000000 U
b1000000 a
b1000000 r
b1000000 x
b1000000 z
1)
#1220
0)
#1225
1p
b10 q
1)
#1230
0)
#1235
1}
0p
b0 q
1Y
1)
#1240
0)
#1245
b11011111 v
0}
b10000 u
b110 !"
0Y
b1 q
b100000 z
b100000 U
b100000 a
b100000 r
b100000 x
1)
#1250
0)
#1255
1p
b10 q
1)
#1260
0)
#1265
1}
1Y
0p
b0 q
1)
#1270
0)
#1275
b11101111 v
0}
b1000 u
b1 q
0Y
b111 !"
b10000 U
b10000 a
b10000 r
b10000 x
b10000 z
1)
#1280
0)
#1285
1p
b10 q
1)
#1290
0)
#1295
1}
0p
b0 q
1Y
1)
#1300
0)
#1305
b11110111 v
0}
b100 u
b1000 !"
0Y
b1 q
b1000 z
b1000 U
b1000 a
b1000 r
b1000 x
1)
#1310
0)
#1315
1p
b10 q
1)
#1320
0)
#1325
1}
1Y
0p
b0 q
1)
#1330
0)
#1335
b11111011 v
0}
b10 u
b1 q
0Y
b1001 !"
b100 U
b100 a
b100 r
b100 x
b100 z
1)
#1340
0)
#1345
1p
b10 q
1)
#1350
0)
#1355
1}
0p
b0 q
1Y
1)
#1360
0)
#1365
b11111101 v
0}
b1 u
b1010 !"
0Y
b1 q
b10 z
b10 U
b10 a
b10 r
b10 x
1)
#1370
0)
#1375
1p
b10 q
1)
#1380
0)
#1385
1}
1Y
0p
b0 q
1)
#1390
0)
#1395
b11111110 v
0}
b11 w
b0 u
b1 q
0Y
b1011 !"
b1 U
b1 a
b1 r
b1 x
b1 z
1)
#1400
0)
#1405
1p
b10 q
1)
#1410
0)
#1415
1}
0p
b0 q
1Y
1)
#1420
0)
#1425
b10 g
b10 l
1`
b11111111 v
1C
0}
b0 w
1$
b11 {
b1100 !"
0Y
b1 q
b0 z
b0 U
b0 a
b0 r
b0 x
1)
#1430
0)
#1435
0`
0C
b10 g
b10 l
b11 n
1p
b10 q
b10 W
b10 b
b10 h
b10 m
1[
1)
#1440
0)
#1445
1}
1Y
0p
b0 q
1)
#1450
0)
#1455
0}
b1 q
0Y
b1101 !"
0$
b0 {
1)
#1460
0)
#1465
0[
1p
b10 q
1)
#1470
0)
#1475
1}
0p
b0 q
1Y
1)
#1480
0)
#1485
b1111111 v
0}
b1000000 u
b1110 !"
0Y
b1 q
b10000000 z
b10000000 U
b10000000 a
b10000000 r
b10000000 x
1)
#1490
0)
#1495
1p
b10 q
1)
#1500
0)
#1505
1}
1Y
0p
b0 q
1)
#1510
0)
#1515
0}
b1 q
0Y
b1111 !"
1)
#1520
0)
#1525
1p
b10 q
1)
#1530
0)
#1535
1}
0p
b0 q
1Y
1)
#1540
0)
#1545
0}
1~
b10000 !"
0Y
b1 q
1)
#1550
0)
#1555
1p
b10 q
0~
b0 !"
1T
1""
1)
#1560
0)
#1565
r1.2 <
r1.2 $"
b10 '
b10 Z
b10 R
b10 S
1}
b10 ]
0T
0""
1Y
0p
b0 q
b1 w
1M
1O
1^
1)
#1570
0)
#1575
0}
b1 q
0Y
b1 !"
1!
b1 {
b1 \
b1 w
0M
0O
0^
1)
#1580
0)
#1585
1p
b10 q
1)
#1590
0)
#1595
1}
0p
b0 q
1Y
1)
#1600
0)
#1605
0}
b10 \
b1 y
b10 !"
0Y
b1 q
1)
#1610
0)
#1615
1p
b10 q
1)
#1620
0)
#1625
1}
1Y
0p
b0 q
1)
#1630
0)
#1635
0}
b10 w
b1 q
0Y
b11 !"
1t
b10 y
b0 \
1)
#1640
0)
#1645
1p
b10 q
1)
#1650
0)
#1655
1}
0p
b0 q
1Y
1)
#1660
0)
#1665
0}
0t
b0 y
0!
b10 {
b100 !"
0Y
b1 q
1)
#1670
0)
#1675
1p
b10 q
1)
#1680
0)
#1685
1}
1Y
0p
b0 q
1)
#1690
0)
#1695
b10111111 v
0}
b100000 u
b1 q
0Y
b101 !"
b1000000 U
b1000000 a
b1000000 r
b1000000 x
b1000000 z
1)
#1700
0)
#1705
1p
b10 q
1)
#1710
0)
#1715
1}
0p
b0 q
1Y
1)
#1720
0)
#1725
b11011111 v
0}
b10000 u
b110 !"
0Y
b1 q
b100000 z
b100000 U
b100000 a
b100000 r
b100000 x
1)
#1730
0)
#1735
1p
b10 q
1)
#1740
0)
#1745
1}
1Y
0p
b0 q
1)
#1750
0)
#1755
b11101111 v
0}
b1000 u
b1 q
0Y
b111 !"
b10000 U
b10000 a
b10000 r
b10000 x
b10000 z
1)
#1760
0)
#1765
1p
b10 q
1)
#1770
0)
#1775
1}
0p
b0 q
1Y
1)
#1780
0)
#1785
b11110111 v
0}
b100 u
b1000 !"
0Y
b1 q
b1000 z
b1000 U
b1000 a
b1000 r
b1000 x
1)
#1790
0)
#1795
1p
b10 q
1)
#1800
0)
#1805
1}
1Y
0p
b0 q
1)
#1810
0)
#1815
b11111011 v
0}
b10 u
b1 q
0Y
b1001 !"
b100 U
b100 a
b100 r
b100 x
b100 z
1)
#1820
0)
#1825
1p
b10 q
1)
#1830
0)
#1835
1}
0p
b0 q
1Y
1)
#1840
0)
#1845
b11111101 v
0}
b1 u
b1010 !"
0Y
b1 q
b10 z
b10 U
b10 a
b10 r
b10 x
1)
#1850
0)
#1855
1p
b10 q
1)
#1860
0)
#1865
1}
1Y
0p
b0 q
1)
#1870
0)
#1875
b11111110 v
0}
b11 w
b0 u
b1 q
0Y
b1011 !"
b1 U
b1 a
b1 r
b1 x
b1 z
1)
#1880
0)
#1885
1p
b10 q
1)
#1890
0)
#1895
1}
0p
b0 q
1Y
1)
#1900
0)
#1905
b11 g
b11 l
1`
b11111111 v
1C
0}
b0 w
1$
b11 {
b1100 !"
0Y
b1 q
b0 z
b0 U
b0 a
b0 r
b0 x
1)
#1910
0)
#1915
0`
0C
b11 g
b11 l
b100 n
1p
b10 q
b11 W
b11 b
b11 h
b11 m
1[
1)
#1920
0)
#1925
1}
1Y
0p
b0 q
1)
#1930
0)
#1935
0}
b1 q
0Y
b1101 !"
0$
b0 {
1)
#1940
0)
#1945
0[
1p
b10 q
1)
#1950
0)
#1955
1}
0p
b0 q
1Y
1)
#1960
0)
#1965
b1111111 v
0}
b1000000 u
b1110 !"
0Y
b1 q
b10000000 z
b10000000 U
b10000000 a
b10000000 r
b10000000 x
1)
#1970
0)
#1975
1p
b10 q
1)
#1980
0)
#1985
1}
1Y
0p
b0 q
1)
#1990
0)
#1995
0}
b1 q
0Y
b1111 !"
1)
#2000
0)
#2005
1p
b10 q
1)
#2010
0)
#2015
1}
0p
b0 q
1Y
1)
#2020
0)
#2025
0}
1~
b10000 !"
0Y
b1 q
1)
#2030
0)
#2035
1p
b10 q
0~
b0 !"
1T
1""
1)
#2040
0)
#2045
r2.5 <
r2.5 $"
b11 '
b11 Z
b11 R
1Q
b10011 S
1}
b11 ]
0T
0""
1Y
0p
b0 q
b1 w
1M
1O
1^
1)
#2050
0)
#2055
0}
b1 q
0Y
b1 !"
1!
b1 {
b1 \
b1 w
0M
0O
0^
1)
#2060
0)
#2065
1p
b10 q
1)
#2070
0)
#2075
1}
0p
b0 q
1Y
1)
#2080
0)
#2085
0}
b10 \
b1 y
b10 !"
0Y
b1 q
1)
#2090
0)
#2095
1p
b10 q
1)
#2100
0)
#2105
1}
1Y
0p
b0 q
1)
#2110
0)
#2115
0}
b10 w
b1 q
0Y
b11 !"
1t
b10 y
b0 \
1)
#2120
0)
#2125
1p
b10 q
1)
#2130
0)
#2135
1}
0p
b0 q
1Y
1)
#2140
0)
#2145
0}
0t
b0 y
0!
b10 {
b100 !"
0Y
b1 q
1)
#2150
0)
#2155
1p
b10 q
1)
#2160
0)
#2165
1}
1Y
0p
b0 q
1)
#2170
0)
#2175
b10111111 v
0}
b100000 u
b1 q
0Y
b101 !"
b1000000 U
b1000000 a
b1000000 r
b1000000 x
b1000000 z
1)
#2180
0)
#2185
1p
b10 q
1)
#2190
0)
#2195
1}
0p
b0 q
1Y
1)
#2200
0)
#2205
b11011111 v
0}
b10000 u
b110 !"
0Y
b1 q
b100000 z
b100000 U
b100000 a
b100000 r
b100000 x
1)
#2210
0)
#2215
1p
b10 q
1)
#2220
0)
#2225
1}
1Y
0p
b0 q
1)
#2230
0)
#2235
b11101111 v
0}
b1000 u
b1 q
0Y
b111 !"
b10000 U
b10000 a
b10000 r
b10000 x
b10000 z
1)
#2240
0)
#2245
1p
b10 q
1)
#2250
0)
#2255
1}
0p
b0 q
1Y
1)
#2260
0)
#2265
b11110111 v
0}
b100 u
b1000 !"
0Y
b1 q
b1000 z
b1000 U
b1000 a
b1000 r
b1000 x
1)
#2270
0)
#2275
1p
b10 q
1)
#2280
0)
#2285
1}
1Y
0p
b0 q
1)
#2290
0)
#2295
b11111011 v
0}
b10 u
b1 q
0Y
b1001 !"
b100 U
b100 a
b100 r
b100 x
b100 z
1)
#2300
0)
#2305
1p
b10 q
1)
#2310
0)
#2315
1}
0p
b0 q
1Y
1)
#2320
0)
#2325
b11111101 v
0}
b1 u
b1010 !"
0Y
b1 q
b10 z
b10 U
b10 a
b10 r
b10 x
1)
#2330
0)
#2335
1p
b10 q
1)
#2340
0)
#2345
1}
1Y
0p
b0 q
1)
#2350
0)
#2355
b11111110 v
0}
b11 w
b0 u
b1 q
0Y
b1011 !"
b1 U
b1 a
b1 r
b1 x
b1 z
1)
#2360
0)
#2365
1p
b10 q
1)
#2370
0)
#2375
1}
0p
b0 q
1Y
1)
#2380
0)
#2385
b100 g
b100 l
1`
b11111111 v
1C
0}
b0 w
1$
b11 {
b1100 !"
0Y
b1 q
b0 z
b0 U
b0 a
b0 r
b0 x
1)
#2390
0)
#2395
0`
0C
b100 g
b100 l
b101 n
1p
b10 q
b100 W
b100 b
b100 h
b100 m
1[
1)
#2400
0)
#2405
1}
1Y
0p
b0 q
1)
#2410
0)
#2415
0}
b1 q
0Y
b1101 !"
0$
b0 {
1)
#2420
0)
#2425
0[
1p
b10 q
1)
#2430
0)
#2435
1}
0p
b0 q
1Y
1)
#2440
0)
#2445
b1111111 v
0}
b1000000 u
b1110 !"
0Y
b1 q
b10000000 z
b10000000 U
b10000000 a
b10000000 r
b10000000 x
1)
#2450
0)
#2455
1p
b10 q
1)
#2460
0)
#2465
1}
1Y
0p
b0 q
1)
#2470
0)
#2475
0}
b1 q
0Y
b1111 !"
1)
#2480
0)
#2485
1p
b10 q
1)
#2490
0)
#2495
1}
0p
b0 q
1Y
1)
#2500
0)
#2505
0}
1~
b10000 !"
0Y
b1 q
1)
#2510
0)
#2515
1p
b10 q
0~
b0 !"
1T
1""
1)
#2520
0)
#2525
r1.5 <
r1.5 $"
b0 '
b0 Z
b0 R
0Q
b0 S
1}
b0 ]
0T
0""
1Y
0p
b0 q
b1 w
1M
1O
1^
1)
#2530
0)
#2535
0}
b1 q
0Y
b1 !"
1!
b1 {
b1 \
b1 w
0M
0O
0^
1)
#2540
0)
#2545
1p
b10 q
1)
#2550
0)
#2555
1}
0p
b0 q
1Y
1)
#2560
0)
#2565
0}
b10 \
b1 y
b10 !"
0Y
b1 q
1)
#2570
0)
#2575
1p
b10 q
1)
#2580
0)
#2585
1}
1Y
0p
b0 q
1)
#2590
0)
#2595
0}
b10 w
b1 q
0Y
b11 !"
1t
b10 y
b0 \
1)
#2600
0)
#2605
1p
b10 q
1)
#2610
0)
#2615
1}
0p
b0 q
1Y
1)
#2620
0)
#2625
0}
0t
b0 y
0!
b10 {
b100 !"
0Y
b1 q
1)
#2630
0)
#2635
1p
b10 q
1)
#2640
0)
#2645
1}
1Y
0p
b0 q
1)
#2650
0)
#2655
b10111111 v
0}
b100000 u
b1 q
0Y
b101 !"
b1000000 U
b1000000 a
b1000000 r
b1000000 x
b1000000 z
1)
#2660
0)
#2665
1p
b10 q
1)
#2670
0)
#2675
1}
0p
b0 q
1Y
1)
#2680
0)
#2685
b11011111 v
0}
b10000 u
b110 !"
0Y
b1 q
b100000 z
b100000 U
b100000 a
b100000 r
b100000 x
1)
#2690
0)
#2695
1p
b10 q
1)
#2700
0)
#2705
1}
1Y
0p
b0 q
1)
#2710
0)
#2715
b11101111 v
0}
b1000 u
b1 q
0Y
b111 !"
b10000 U
b10000 a
b10000 r
b10000 x
b10000 z
1)
#2720
0)
#2725
1p
b10 q
1)
#2730
0)
#2735
1}
0p
b0 q
1Y
1)
#2740
0)
#2745
b11110111 v
0}
b100 u
b1000 !"
0Y
b1 q
b1000 z
b1000 U
b1000 a
b1000 r
b1000 x
1)
#2750
0)
#2755
1p
b10 q
1)
#2760
0)
#2765
1}
1Y
0p
b0 q
1)
#2770
0)
#2775
b11111011 v
0}
b10 u
b1 q
0Y
b1001 !"
b100 U
b100 a
b100 r
b100 x
b100 z
1)
#2780
0)
#2785
1p
b10 q
1)
#2790
0)
#2795
1}
0p
b0 q
1Y
1)
#2800
0)
#2805
b11111101 v
0}
b1 u
b1010 !"
0Y
b1 q
b10 z
b10 U
b10 a
b10 r
b10 x
1)
#2810
0)
#2815
1p
b10 q
1)
#2820
0)
#2825
1}
1Y
0p
b0 q
1)
#2830
0)
#2835
b11111110 v
0}
b11 w
b0 u
b1 q
0Y
b1011 !"
b1 U
b1 a
b1 r
b1 x
b1 z
1)
#2840
0)
#2845
1p
b10 q
1)
#2850
0)
#2855
1}
0p
b0 q
1Y
1)
#2860
0)
#2865
b101 g
b101 l
1`
b11111111 v
1C
0}
b0 w
1$
b11 {
b1100 !"
0Y
b1 q
b0 z
b0 U
b0 a
b0 r
b0 x
1)
#2870
0)
#2875
0`
0C
b101 g
b101 l
b110 n
1p
b10 q
b101 W
b101 b
b101 h
b101 m
1[
1)
#2880
0)
#2885
1}
1Y
0p
b0 q
1)
#2890
0)
#2895
0}
b1 q
0Y
b1101 !"
0$
b0 {
1)
#2900
0)
#2905
0[
1p
b10 q
1)
#2910
0)
#2915
1}
0p
b0 q
1Y
1)
#2920
0)
#2925
b1111111 v
0}
b1000000 u
b1110 !"
0Y
b1 q
b10000000 z
b10000000 U
b10000000 a
b10000000 r
b10000000 x
1)
#2930
0)
#2935
1p
b10 q
1)
#2940
0)
#2945
1}
1Y
0p
b0 q
1)
#2950
0)
#2955
0}
b1 q
0Y
b1111 !"
1)
#2960
0)
#2965
1p
b10 q
1)
#2970
0)
#2975
1}
0p
b0 q
1Y
1)
#2980
0)
#2985
0}
1~
b10000 !"
0Y
b1 q
1)
#2990
0)
#2995
1p
b10 q
0~
b0 !"
1T
1""
1)
#3000
0)
#3005
r1.8 <
r1.8 $"
b1 '
b1 Z
b1 R
b1 S
1}
b1 ]
0T
0""
1Y
0p
b0 q
b1 w
1M
1O
1^
1)
#3010
0)
#3015
0}
b1 q
0Y
b1 !"
1!
b1 {
b1 \
b1 w
0M
0O
0^
1)
#3020
0)
#3025
1p
b10 q
1)
#3030
0)
#3035
1}
0p
b0 q
1Y
1)
#3040
0)
#3045
0}
b10 \
b1 y
b10 !"
0Y
b1 q
1)
#3050
0)
#3055
1p
b10 q
1)
#3060
0)
#3065
1}
1Y
0p
b0 q
1)
#3070
0)
#3075
0}
b10 w
b1 q
0Y
b11 !"
1t
b10 y
b0 \
1)
#3080
0)
#3085
1p
b10 q
1)
#3090
0)
#3095
1}
0p
b0 q
1Y
1)
#3100
0)
#3105
0}
0t
b0 y
0!
b10 {
b100 !"
0Y
b1 q
1)
#3110
0)
#3115
1p
b10 q
1)
#3120
0)
#3125
1}
1Y
0p
b0 q
1)
#3130
0)
#3135
b10111111 v
0}
b100000 u
b1 q
0Y
b101 !"
b1000000 U
b1000000 a
b1000000 r
b1000000 x
b1000000 z
1)
#3140
0)
#3145
1p
b10 q
1)
#3150
0)
#3155
1}
0p
b0 q
1Y
1)
#3160
0)
#3165
b11011111 v
0}
b10000 u
b110 !"
0Y
b1 q
b100000 z
b100000 U
b100000 a
b100000 r
b100000 x
1)
#3170
0)
#3175
1p
b10 q
1)
#3180
0)
#3185
1}
1Y
0p
b0 q
1)
#3190
0)
#3195
b11101111 v
0}
b1000 u
b1 q
0Y
b111 !"
b10000 U
b10000 a
b10000 r
b10000 x
b10000 z
1)
