verify/utb/pwm.vcd
$date
	Sat Jul 29 18:54:40 2023
$end
$version
	Icarus Verilog
$end
$timescale
	1s
$end
$scope module tb $end
$var wire 1 ! pwmB $end
$var wire 1 " pwmA $end
$var reg 1 # clk $end
$var reg 4 $ clkdiv [3:0] $end
$var reg 32 % cmpA [31:0] $end
$var reg 32 & cmpB [31:0] $end
$var reg 1 ' cntr_mode $end
$var reg 1 ( en $end
$var reg 1 ) enA $end
$var reg 1 * enB $end
$var reg 1 + invA $end
$var reg 1 , invB $end
$var reg 32 - load [31:0] $end
$var reg 2 . pwmA_e0a [1:0] $end
$var reg 2 / pwmA_e1a [1:0] $end
$var reg 2 0 pwmA_e2a [1:0] $end
$var reg 2 1 pwmA_e3a [1:0] $end
$var reg 2 2 pwmA_e4a [1:0] $end
$var reg 2 3 pwmA_e5a [1:0] $end
$var reg 2 4 pwmB_e0a [1:0] $end
$var reg 2 5 pwmB_e1a [1:0] $end
$var reg 2 6 pwmB_e2a [1:0] $end
$var reg 2 7 pwmB_e3a [1:0] $end
$var reg 2 8 pwmB_e4a [1:0] $end
$var reg 2 9 pwmB_e5a [1:0] $end
$var reg 1 : rst_n $end
$scope module duv $end
$var wire 1 # clk $end
$var wire 4 ; clkdiv [3:0] $end
$var wire 1 < clkdiv16 $end
$var wire 1 = clkdiv4 $end
$var wire 1 > clkdiv8 $end
$var wire 32 ? cmpA [31:0] $end
$var wire 32 @ cmpB [31:0] $end
$var wire 1 A cmp_ad $end
$var wire 1 B cmp_au $end
$var wire 1 C cmp_bd $end
$var wire 1 D cmp_bu $end
$var wire 1 ' cntr_mode $end
$var wire 1 ( en $end
$var wire 1 ) enA $end
$var wire 1 * enB $end
$var wire 1 + invA $end
$var wire 1 , invB $end
$var wire 32 E load [31:0] $end
$var wire 2 F pwmA_e0a [1:0] $end
$var wire 2 G pwmA_e1a [1:0] $end
$var wire 2 H pwmA_e2a [1:0] $end
$var wire 2 I pwmA_e3a [1:0] $end
$var wire 2 J pwmA_e4a [1:0] $end
$var wire 2 K pwmA_e5a [1:0] $end
$var wire 2 L pwmB_e0a [1:0] $end
$var wire 2 M pwmB_e1a [1:0] $end
$var wire 2 N pwmB_e2a [1:0] $end
$var wire 2 O pwmB_e3a [1:0] $end
$var wire 2 P pwmB_e4a [1:0] $end
$var wire 2 Q pwmB_e5a [1:0] $end
$var wire 1 : rst_n $end
$var wire 1 ! pwmB $end
$var wire 1 " pwmA $end
$var wire 1 R cmp_zero $end
$var wire 1 S cmp_load $end
$var wire 1 T cmp_b $end
$var wire 1 U cmp_a $end
$var wire 1 V clkdiv2 $end
$var reg 4 W clkdiv_ctr [3:0] $end
$var reg 1 X clken $end
$var reg 32 Y cntr [31:0] $end
$var reg 1 Z dir $end
$var reg 1 [ pwm_a $end
$var reg 1 \ pwm_b $end
$upscope $end
$upscope $end
$enddefinitions $end
#0
$dumpvars
0\
0[
0Z
b0 Y
0X
b0 W
0V
0U
0T
0S
1R
b0 Q
b0 P
b0 O
b1 N
b0 M
b10 L
b0 K
b0 J
b0 I
b0 H
b10 G
b1 F
b1100 E
0D
0C
0B
0A
b1001 @
b101 ?
0>
0=
0<
b10 ;
0:
b0 9
b0 8
b0 7
b1 6
b0 5
b10 4
b0 3
b0 2
b0 1
b0 0
b10 /
b1 .
b1100 -
0,
0+
1*
1)
0(
0'
b1001 &
b101 %
b10 $
0#
0"
0!
$end
#5
1#
#10
0#
#15
1#
#20
0#
#25
1#
#30
0#
#35
1#
#40
0#
#45
1#
#50
0#
#55
1#
#60
0#
#65
1#
#70
0#
#75
1#
#80
0#
#85
1#
#90
0#
#95
1#
#100
0#
#105
1=
b1 W
1:
1#
#110
0#
#115
0=
b10 W
1#
#120
0#
#125
1=
b11 W
1#
#130
0#
#135
0=
b100 W
1#
#140
0#
#145
1=
b101 W
1#
#150
0#
#155
0=
b110 W
1#
#160
0#
#165
1=
b111 W
1#
#170
0#
#175
0=
b1000 W
1#
#180
0#
#185
1=
b1001 W
1#
#190
0#
#195
0=
b1010 W
1#
#200
0#
#205
1=
b1011 W
1#
#210
0#
#215
0=
b1100 W
1#
#220
0#
#225
1=
b1101 W
1#
#230
0#
#235
0=
b1110 W
1#
#240
0#
#245
1=
b1111 W
1#
#250
0#
#255
0=
b0 W
1#
#260
0#
#265
1=
b1 W
1#
#270
0#
#275
0=
b10 W
1#
#280
0#
#285
1=
b11 W
1#
#290
0#
#295
0=
b100 W
1#
#300
0#
#305
1=
b101 W
1#
#310
0#
#315
0=
b110 W
1#
#320
0#
#325
1=
b111 W
1#
#330
0#
#335
0=
b1000 W
1#
#340
0#
#345
1=
b1001 W
1#
#350
0#
#355
0=
b1010 W
1#
#360
0#
#365
1=
b1011 W
1#
#370
0#
#375
0=
b1100 W
1#
#380
0#
#385
1=
b1101 W
1#
#390
0#
#395
0=
b1110 W
1#
#400
0#
#405
1=
b1111 W
1#
#410
0#
#415
0=
b0 W
1#
#420
0#
#425
1=
b1 W
1#
#430
0#
#435
0=
b10 W
1#
#440
0#
#445
1=
b11 W
1#
#450
0#
#455
0=
b100 W
1#
#460
0#
#465
1=
b101 W
1#
#470
0#
#475
0=
b110 W
1#
#480
0#
#485
1=
b111 W
1#
#490
0#
#495
0=
b1000 W
1#
#500
0#
#505
1=
b1001 W
1(
1#
#510
0#
#515
0=
b1010 W
1X
1#
#520
0#
#525
1=
1"
1[
0R
b1 Y
0X
b1011 W
1#
#530
0#
#535
0=
b1100 W
1X
1#
#540
0#
#545
1=
b10 Y
0X
b1101 W
1#
#550
0#
#555
0=
b1110 W
1X
1#
#560
0#
#565
1=
b11 Y
0X
b1111 W
1#
#570
0#
#575
0=
b0 W
1X
1#
#580
0#
#585
1=
b100 Y
0X
b1 W
1#
#590
0#
#595
0=
b10 W
1X
1#
#600
0#
#605
1=
1B
1U
b101 Y
0X
b11 W
1#
#610
0#
#615
0=
b100 W
1X
1#
#620
0#
#625
1=
0"
0B
0[
0U
b110 Y
0X
b101 W
1#
#630
0#
#635
0=
b110 W
1X
1#
#640
0#
#645
1=
b111 Y
0X
b111 W
1#
#650
0#
#655
0=
b1000 W
1X
1#
#660
0#
#665
1=
b1000 Y
0X
b1001 W
1#
#670
0#
#675
0=
b1010 W
1X
1#
#680
0#
#685
1=
1D
1T
b1001 Y
0X
b1011 W
1#
#690
0#
#695
0=
b1100 W
1X
1#
#700
0#
#705
1=
1!
0D
1\
0T
b1010 Y
0X
b1101 W
1#
#710
0#
#715
0=
b1110 W
1X
1#
#720
0#
#725
1=
b1011 Y
0X
b1111 W
1#
#730
0#
#735
0=
b0 W
1X
1#
#740
0#
#745
1=
1S
b1100 Y
0X
b1 W
1#
#750
0#
#755
0=
b10 W
1X
1Z
1#
#760
0#
#765
1=
0S
1R
b0 Y
0X
b11 W
1#
#770
0#
#775
0=
b100 W
1X
0Z
1#
#780
0#
#785
1=
0!
1"
0\
1[
0R
b1 Y
0X
b101 W
1#
#790
0#
#795
0=
b110 W
1X
1#
#800
0#
#805
1=
b10 Y
0X
b111 W
1#
#810
0#
#815
0=
b1000 W
1X
1#
#820
0#
#825
1=
b11 Y
0X
b1001 W
1#
#830
0#
#835
0=
b1010 W
1X
1#
#840
0#
#845
1=
b100 Y
0X
b1011 W
1#
#850
0#
#855
0=
b1100 W
1X
1#
#860
0#
#865
1=
1B
1U
b101 Y
0X
b1101 W
1#
#870
0#
#875
0=
b1110 W
1X
1#
#880
0#
#885
1=
0"
0B
0[
0U
b110 Y
0X
b1111 W
1#
#890
0#
#895
0=
b0 W
1X
1#
#900
0#
#905
1=
b111 Y
0X
b1 W
1#
#910
0#
#915
0=
b10 W
1X
1#
#920
0#
#925
1=
b1000 Y
0X
b11 W
1#
#930
0#
#935
0=
b100 W
1X
1#
#940
0#
#945
1=
1D
1T
b1001 Y
0X
b101 W
1#
#950
0#
#955
0=
b110 W
1X
1#
#960
0#
#965
1=
1!
0D
1\
0T
b1010 Y
0X
b111 W
1#
#970
0#
#975
0=
b1000 W
1X
1#
#980
0#
#985
1=
b1011 Y
0X
b1001 W
1#
#990
0#
#995
0=
b1010 W
1X
1#
#1000
0#
#1005
1=
1S
b1100 Y
0X
b1011 W
1#
#1010
0#
#1015
0=
b1100 W
1X
1Z
1#
#1020
0#
#1025
1=
0S
1R
b0 Y
0X
b1101 W
1#
#1030
0#
#1035
0=
b1110 W
1X
0Z
1#
#1040
0#
#1045
1=
0!
1"
0\
1[
0R
b1 Y
0X
b1111 W
1#
#1050
0#
#1055
0=
b0 W
1X
1#
#1060
0#
#1065
1=
b10 Y
0X
b1 W
1#
#1070
0#
#1075
0=
b10 W
1X
1#
#1080
0#
#1085
1=
b11 Y
0X
b11 W
1#
#1090
0#
#1095
0=
b100 W
1X
1#
#1100
0#
#1105
1=
b100 Y
0X
b101 W
1#
#1110
0#
#1115
0=
b110 W
1X
1#
#1120
0#
#1125
1=
1B
1U
b101 Y
0X
b111 W
1#
#1130
0#
#1135
0=
b1000 W
1X
1#
#1140
0#
#1145
1=
0"
0B
0[
0U
b110 Y
0X
b1001 W
1#
#1150
0#
#1155
0=
b1010 W
1X
1#
#1160
0#
#1165
1=
b111 Y
0X
b1011 W
1#
#1170
0#
#1175
0=
b1100 W
1X
1#
#1180
0#
#1185
1=
b1000 Y
0X
b1101 W
1#
#1190
0#
#1195
0=
b1110 W
1X
1#
#1200
0#
#1205
1=
1D
1T
b1001 Y
0X
b1111 W
1#
#1210
0#
#1215
0=
b0 W
1X
1#
#1220
0#
#1225
1=
1!
0D
1\
0T
b1010 Y
0X
b1 W
1#
#1230
0#
#1235
0=
b10 W
1X
1#
#1240
0#
#1245
1=
b1011 Y
0X
b11 W
1#
#1250
0#
#1255
0=
b100 W
1X
1#
#1260
0#
#1265
1=
1S
b1100 Y
0X
b101 W
1#
#1270
0#
#1275
0=
b110 W
1X
1Z
1#
#1280
0#
#1285
1=
0S
1R
b0 Y
0X
b111 W
1#
#1290
0#
#1295
0=
b1000 W
1X
0Z
1#
#1300
0#
#1305
1=
0!
1"
0\
1[
0R
b1 Y
0X
b1001 W
1#
#1310
0#
#1315
0=
b1010 W
1X
1#
#1320
0#
#1325
1=
b10 Y
0X
b1011 W
1#
#1330
0#
#1335
0=
b1100 W
1X
1#
#1340
0#
#1345
1=
b11 Y
0X
b1101 W
1#
#1350
0#
#1355
0=
b1110 W
1X
1#
#1360
0#
#1365
1=
b100 Y
0X
b1111 W
1#
#1370
0#
#1375
0=
b0 W
1X
1#
#1380
0#
#1385
1=
1B
1U
b101 Y
0X
b1 W
1#
#1390
0#
#1395
0=
b10 W
1X
1#
#1400
0#
#1405
1=
0"
0B
0[
0U
b110 Y
0X
b11 W
1#
#1410
0#
#1415
0=
b100 W
1X
1#
#1420
0#
#1425
1=
b111 Y
0X
b101 W
1#
#1430
0#
#1435
0=
b110 W
1X
1#
#1440
0#
#1445
1=
b1000 Y
0X
b111 W
1#
#1450
0#
#1455
0=
b1000 W
1X
1#
#1460
0#
#1465
1=
1D
1T
b1001 Y
0X
b1001 W
1#
#1470
0#
#1475
0=
b1010 W
1X
1#
#1480
0#
#1485
1=
1!
0D
1\
0T
b1010 Y
0X
b1011 W
1#
#1490
0#
#1495
0=
b1100 W
1X
1#
#1500
0#
#1505
b1011 Y
0X
b1101 W
b100 $
b100 ;
1#
#1510
0#
#1515
b1110 W
1#
#1520
0#
#1525
1>
b1111 W
1#
#1530
0#
#1535
0>
b0 W
1X
1#
#1540
0#
#1545
1S
b1100 Y
0X
b1 W
1#
#1550
0#
#1555
b10 W
1Z
1#
#1560
0#
#1565
1>
b11 W
1#
#1570
0#
#1575
0>
b100 W
1X
1#
#1580
0#
#1585
0S
1R
b0 Y
0X
b101 W
1#
#1590
0#
#1595
b110 W
0Z
1#
#1600
0#
#1605
1>
b111 W
1#
#1610
0#
#1615
0>
b1000 W
1X
1#
#1620
0#
#1625
0!
1"
0\
1[
0R
b1 Y
0X
b1001 W
1#
#1630
0#
#1635
b1010 W
1#
#1640
0#
#1645
1>
b1011 W
1#
#1650
0#
#1655
0>
b1100 W
1X
1#
#1660
0#
#1665
b10 Y
0X
b1101 W
1#
#1670
0#
#1675
b1110 W
1#
#1680
0#
#1685
1>
b1111 W
1#
#1690
0#
#1695
0>
b0 W
1X
1#
#1700
0#
#1705
b11 Y
0X
b1 W
1#
#1710
0#
#1715
b10 W
1#
#1720
0#
#1725
1>
b11 W
1#
#1730
0#
#1735
0>
b100 W
1X
1#
#1740
0#
#1745
b100 Y
0X
b101 W
1#
#1750
0#
#1755
b110 W
1#
#1760
0#
#1765
1>
b111 W
1#
#1770
0#
#1775
0>
b1000 W
1X
1#
#1780
0#
#1785
1B
1U
b101 Y
0X
b1001 W
1#
#1790
0#
#1795
b1010 W
1#
#1800
0#
#1805
1>
b1011 W
1#
#1810
0#
#1815
0>
b1100 W
1X
1#
#1820
0#
#1825
0"
0B
0[
0U
b110 Y
0X
b1101 W
1#
#1830
0#
#1835
b1110 W
1#
#1840
0#
#1845
1>
b1111 W
1#
#1850
0#
#1855
0>
b0 W
1X
1#
#1860
0#
#1865
b111 Y
0X
b1 W
1#
#1870
0#
#1875
b10 W
1#
#1880
0#
#1885
1>
b11 W
1#
#1890
0#
#1895
0>
b100 W
1X
1#
#1900
0#
#1905
b1000 Y
0X
b101 W
1#
#1910
0#
#1915
b110 W
1#
#1920
0#
#1925
1>
b111 W
1#
#1930
0#
#1935
0>
b1000 W
1X
1#
#1940
0#
#1945
1D
1T
b1001 Y
0X
b1001 W
1#
#1950
0#
#1955
b1010 W
1#
#1960
0#
#1965
1>
b1011 W
1#
#1970
0#
#1975
0>
b1100 W
1X
1#
#1980
0#
#1985
1!
0D
1\
0T
b1010 Y
0X
b1101 W
1#
#1990
0#
#1995
b1110 W
1#
#2000
0#
#2005
1>
b1111 W
1#
#2010
0#
#2015
0>
b0 W
1X
1#
#2020
0#
#2025
b1011 Y
0X
b1 W
1#
#2030
0#
#2035
b10 W
1#
#2040
0#
#2045
1>
b11 W
1#
#2050
0#
#2055
0>
b100 W
1X
1#
#2060
0#
#2065
1S
b1100 Y
0X
b101 W
1#
#2070
0#
#2075
b110 W
1Z
1#
#2080
0#
#2085
1>
b111 W
1#
#2090
0#
#2095
0>
b1000 W
1X
1#
#2100
0#
#2105
0S
1R
b0 Y
0X
b1001 W
1#
#2110
0#
#2115
b1010 W
0Z
1#
#2120
0#
#2125
1>
b1011 W
1#
#2130
0#
#2135
0>
b1100 W
1X
1#
#2140
0#
#2145
0!
1"
0\
1[
0R
b1 Y
0X
b1101 W
1#
#2150
0#
#2155
b1110 W
1#
#2160
0#
#2165
1>
b1111 W
1#
#2170
0#
#2175
0>
b0 W
1X
1#
#2180
0#
#2185
b10 Y
0X
b1 W
1#
#2190
0#
#2195
b10 W
1#
#2200
0#
#2205
1>
b11 W
1#
#2210
0#
#2215
0>
b100 W
1X
1#
#2220
0#
#2225
b11 Y
0X
b101 W
1#
#2230
0#
#2235
b110 W
1#
#2240
0#
#2245
1>
b111 W
1#
#2250
0#
#2255
0>
b1000 W
1X
1#
#2260
0#
#2265
b100 Y
0X
b1001 W
1#
#2270
0#
#2275
b1010 W
1#
#2280
0#
#2285
1>
b1011 W
1#
#2290
0#
#2295
0>
b1100 W
1X
1#
#2300
0#
#2305
1B
1U
b101 Y
0X
b1101 W
1#
#2310
0#
#2315
b1110 W
1#
#2320
0#
#2325
1>
b1111 W
1#
#2330
0#
#2335
0>
b0 W
1X
1#
#2340
0#
#2345
0"
0B
0[
0U
b110 Y
0X
b1 W
1#
#2350
0#
#2355
b10 W
1#
#2360
0#
#2365
1>
b11 W
1#
#2370
0#
#2375
0>
b100 W
1X
1#
#2380
0#
#2385
b111 Y
0X
b101 W
1#
#2390
0#
#2395
b110 W
1#
#2400
0#
#2405
1>
b111 W
1#
#2410
0#
#2415
0>
b1000 W
1X
1#
#2420
0#
#2425
b1000 Y
0X
b1001 W
1#
#2430
0#
#2435
b1010 W
1#
#2440
0#
#2445
1>
b1011 W
1#
#2450
0#
#2455
0>
b1100 W
1X
1#
#2460
0#
#2465
1D
1T
b1001 Y
0X
b1101 W
1#
#2470
0#
#2475
b1110 W
1#
#2480
0#
#2485
1>
b1111 W
1#
#2490
0#
#2495
0>
b0 W
1X
1#
#2500
0#
#2505
1!
0D
1\
0T
b1010 Y
0X
b1 W
b1000 $
b1000 ;
1#
#2510
0#
#2515
b10 W
1#
#2520
0#
#2525
b11 W
1#
#2530
0#
#2535
b100 W
1#
#2540
0#
#2545
b101 W
1#
#2550
0#
#2555
b110 W
1#
#2560
0#
#2565
1<
b111 W
1#
#2570
0#
#2575
0<
b1000 W
1X
1#
#2580
0#
#2585
b1011 Y
0X
b1001 W
1#
#2590
0#
#2595
b1010 W
1#
#2600
0#
#2605
b1011 W
1#
#2610
0#
#2615
b1100 W
1#
#2620
0#
#2625
b1101 W
1#
#2630
0#
#2635
b1110 W
1#
#2640
0#
#2645
1<
b1111 W
1#
#2650
0#
#2655
0<
b0 W
1X
1#
#2660
0#
#2665
1S
b1100 Y
0X
b1 W
1#
#2670
0#
#2675
b10 W
1Z
1#
#2680
0#
#2685
b11 W
1#
#2690
0#
#2695
b100 W
1#
#2700
0#
#2705
b101 W
1#
#2710
0#
#2715
b110 W
1#
#2720
0#
#2725
1<
b111 W
1#
#2730
0#
#2735
0<
b1000 W
1X
1#
#2740
0#
#2745
0S
1R
b0 Y
0X
b1001 W
1#
#2750
0#
#2755
b1010 W
0Z
1#
#2760
0#
#2765
b1011 W
1#
#2770
0#
#2775
b1100 W
1#
#2780
0#
#2785
b1101 W
1#
#2790
0#
#2795
b1110 W
1#
#2800
0#
#2805
1<
b1111 W
1#
#2810
0#
#2815
0<
b0 W
1X
1#
#2820
0#
#2825
0!
1"
0\
1[
0R
b1 Y
0X
b1 W
1#
#2830
0#
#2835
b10 W
1#
#2840
0#
#2845
b11 W
1#
#2850
0#
#2855
b100 W
1#
#2860
0#
#2865
b101 W
1#
#2870
0#
#2875
b110 W
1#
#2880
0#
#2885
1<
b111 W
1#
#2890
0#
#2895
0<
b1000 W
1X
1#
#2900
0#
#2905
b10 Y
0X
b1001 W
1#
#2910
0#
#2915
b1010 W
1#
#2920
0#
#2925
b1011 W
1#
#2930
0#
#2935
b1100 W
1#
#2940
0#
#2945
b1101 W
1#
#2950
0#
#2955
b1110 W
1#
#2960
0#
#2965
1<
b1111 W
1#
#2970
0#
#2975
0<
b0 W
1X
1#
#2980
0#
#2985
b11 Y
0X
b1 W
1#
#2990
0#
#2995
b10 W
1#
#3000
0#
#3005
b11 W
1#
#3010
0#
#3015
b100 W
1#
#3020
0#
#3025
b101 W
1#
#3030
0#
#3035
b110 W
1#
#3040
0#
#3045
1<
b111 W
1#
#3050
0#
#3055
0<
b1000 W
1X
1#
#3060
0#
#3065
b100 Y
0X
b1001 W
1#
#3070
0#
#3075
b1010 W
1#
#3080
0#
#3085
b1011 W
1#
#3090
0#
#3095
b1100 W
1#
#3100
0#
#3105
b1101 W
1#
#3110
0#
#3115
b1110 W
1#
#3120
0#
#3125
1<
b1111 W
1#
#3130
0#
#3135
0<
b0 W
1X
1#
#3140
0#
#3145
1B
1U
b101 Y
0X
b1 W
1#
#3150
0#
#3155
b10 W
1#
#3160
0#
#3165
b11 W
1#
#3170
0#
#3175
b100 W
1#
#3180
0#
#3185
b101 W
1#
#3190
0#
#3195
b110 W
1#
#3200
0#
#3205
1<
b111 W
1#
#3210
0#
#3215
0<
b1000 W
1X
1#
#3220
0#
#3225
0"
0B
0[
0U
b110 Y
0X
b1001 W
1#
#3230
0#
#3235
b1010 W
1#
#3240
0#
#3245
b1011 W
1#
#3250
0#
#3255
b1100 W
1#
#3260
0#
#3265
b1101 W
1#
#3270
0#
#3275
b1110 W
1#
#3280
0#
#3285
1<
b1111 W
1#
#3290
0#
#3295
0<
b0 W
1X
1#
#3300
0#
#3305
b111 Y
0X
b1 W
1#
#3310
0#
#3315
b10 W
1#
#3320
0#
#3325
b11 W
1#
#3330
0#
#3335
b100 W
1#
#3340
0#
#3345
b101 W
1#
#3350
0#
#3355
b110 W
1#
#3360
0#
#3365
1<
b111 W
1#
#3370
0#
#3375
0<
b1000 W
1X
1#
#3380
0#
#3385
b1000 Y
0X
b1001 W
1#
#3390
0#
#3395
b1010 W
1#
#3400
0#
#3405
b1011 W
1#
#3410
0#
#3415
b1100 W
1#
#3420
0#
#3425
b1101 W
1#
#3430
0#
#3435
b1110 W
1#
#3440
0#
#3445
1<
b1111 W
1#
#3450
0#
#3455
0<
b0 W
1X
1#
#3460
0#
#3465
1D
1T
b1001 Y
0X
b1 W
1#
#3470
0#
#3475
b10 W
1#
#3480
0#
#3485
b11 W
1#
#3490
0#
#3495
b100 W
1#
#3500
0#
#3505
b101 W
1V
b1 8
b1 P
b10 6
b10 N
b0 4
b0 L
b10 3
b10 K
b1 /
b1 G
b0 .
b0 F
1'
b1 $
b1 ;
1#
#3510
0#
#3515
b110 W
1X
1#
#3520
0#
#3525
0D
0T
b1010 Y
0X
b111 W
1#
#3530
0#
#3535
b1000 W
1X
1#
#3540
0#
#3545
b1011 Y
0X
b1001 W
1#
#3550
0#
#3555
b1010 W
1X
1#
#3560
0#
#3565
1S
b1100 Y
0X
b1011 W
1#
#3570
0#
#3575
b1100 W
1X
1Z
1#
#3580
0#
#3585
0S
b1011 Y
0X
b1101 W
1#
#3590
0#
#3595
b1110 W
1X
1#
#3600
0#
#3605
b1010 Y
0X
b1111 W
1#
#3610
0#
#3615
b0 W
1X
1#
#3620
0#
#3625
1C
1T
b1001 Y
0X
b1 W
1#
#3630
0#
#3635
b10 W
1X
1#
#3640
0#
#3645
1!
0C
1\
0T
b1000 Y
0X
b11 W
1#
#3650
0#
#3655
b100 W
1X
1#
#3660
0#
#3665
b111 Y
0X
b101 W
1#
#3670
0#
#3675
b110 W
1X
1#
#3680
0#
#3685
b110 Y
0X
b111 W
1#
#3690
0#
#3695
b1000 W
1X
1#
#3700
0#
#3705
1A
1U
b101 Y
0X
b1001 W
1#
#3710
0#
#3715
b1010 W
1X
1#
#3720
0#
#3725
0A
0U
b100 Y
0X
b1011 W
1#
#3730
0#
#3735
b1100 W
1X
1#
#3740
0#
#3745
b11 Y
0X
b1101 W
1#
#3750
0#
#3755
b1110 W
1X
1#
#3760
0#
#3765
b10 Y
0X
b1111 W
1#
#3770
0#
#3775
b0 W
1X
1#
#3780
0#
#3785
b1 Y
0X
b1 W
1#
#3790
0#
#3795
b10 W
1X
1#
#3800
0#
#3805
1R
b0 Y
0X
b11 W
1#
#3810
0#
#3815
b100 W
1X
0Z
1#
#3820
0#
#3825
0R
b1 Y
0X
b101 W
1#
#3830
0#
#3835
b110 W
1X
1#
#3840
0#
#3845
b10 Y
0X
b111 W
1#
#3850
0#
#3855
b1000 W
1X
1#
#3860
0#
#3865
b11 Y
0X
b1001 W
1#
#3870
0#
#3875
b1010 W
1X
1#
#3880
0#
#3885
b100 Y
0X
b1011 W
1#
#3890
0#
#3895
b1100 W
1X
1#
#3900
0#
#3905
1B
1U
b101 Y
0X
b1101 W
1#
#3910
0#
#3915
b1110 W
1X
1#
#3920
0#
#3925
1"
0B
1[
0U
b110 Y
0X
b1111 W
1#
#3930
0#
#3935
b0 W
1X
1#
#3940
0#
#3945
b111 Y
0X
b1 W
1#
#3950
0#
#3955
b10 W
1X
1#
#3960
0#
#3965
b1000 Y
0X
b11 W
1#
#3970
0#
#3975
b100 W
1X
1#
#3980
0#
#3985
1D
1T
b1001 Y
0X
b101 W
1#
#3990
0#
#3995
b110 W
1X
1#
#4000
0#
#4005
0!
0D
0\
0T
b1010 Y
0X
b111 W
1#
#4010
0#
#4015
b1000 W
1X
1#
#4020
0#
#4025
b1011 Y
0X
b1001 W
1#
#4030
0#
#4035
b1010 W
1X
1#
#4040
0#
#4045
1S
b1100 Y
0X
b1011 W
1#
#4050
0#
#4055
b1100 W
1X
1Z
1#
#4060
0#
#4065
0S
b1011 Y
0X
b1101 W
1#
#4070
0#
#4075
b1110 W
1X
1#
#4080
0#
#4085
b1010 Y
0X
b1111 W
1#
#4090
0#
#4095
b0 W
1X
1#
#4100
0#
#4105
1C
1T
b1001 Y
0X
b1 W
1#
#4110
0#
#4115
b10 W
1X
1#
#4120
0#
#4125
1!
0C
1\
0T
b1000 Y
0X
b11 W
1#
#4130
0#
#4135
b100 W
1X
1#
#4140
0#
#4145
b111 Y
0X
b101 W
1#
#4150
0#
#4155
b110 W
1X
1#
#4160
0#
#4165
b110 Y
0X
b111 W
1#
#4170
0#
#4175
b1000 W
1X
1#
#4180
0#
#4185
1A
1U
b101 Y
0X
b1001 W
1#
#4190
0#
#4195
b1010 W
1X
1#
#4200
0#
#4205
0"
0A
0[
0U
b100 Y
0X
b1011 W
1#
#4210
0#
#4215
b1100 W
1X
1#
#4220
0#
#4225
b11 Y
0X
b1101 W
1#
#4230
0#
#4235
b1110 W
1X
1#
#4240
0#
#4245
b10 Y
0X
b1111 W
1#
#4250
0#
#4255
b0 W
1X
1#
#4260
0#
#4265
b1 Y
0X
b1 W
1#
#4270
0#
#4275
b10 W
1X
1#
#4280
0#
#4285
1R
b0 Y
0X
b11 W
1#
#4290
0#
#4295
b100 W
1X
0Z
1#
#4300
0#
#4305
0R
b1 Y
0X
b101 W
1#
#4310
0#
#4315
b110 W
1X
1#
#4320
0#
#4325
b10 Y
0X
b111 W
1#
#4330
0#
#4335
b1000 W
1X
1#
#4340
0#
#4345
b11 Y
0X
b1001 W
1#
#4350
0#
#4355
b1010 W
1X
1#
#4360
0#
#4365
b100 Y
0X
b1011 W
1#
#4370
0#
#4375
b1100 W
1X
1#
#4380
0#
#4385
1B
1U
b101 Y
0X
b1101 W
1#
#4390
0#
#4395
b1110 W
1X
1#
#4400
0#
#4405
1"
0B
1[
0U
b110 Y
0X
b1111 W
1#
#4410
0#
#4415
b0 W
1X
1#
#4420
0#
#4425
b111 Y
0X
b1 W
1#
#4430
0#
#4435
b10 W
1X
1#
#4440
0#
#4445
b1000 Y
0X
b11 W
1#
#4450
0#
#4455
b100 W
1X
1#
#4460
0#
#4465
1D
1T
b1001 Y
0X
b101 W
1#
#4470
0#
#4475
b110 W
1X
1#
#4480
0#
#4485
0!
0D
0\
0T
b1010 Y
0X
b111 W
1#
#4490
0#
#4495
b1000 W
1X
1#
#4500
0#
#4505
b1011 Y
0X
b1001 W
1#
#4510
0#
#4515
b1010 W
1X
1#
#4520
0#
#4525
1S
b1100 Y
0X
b1011 W
1#
#4530
0#
#4535
b1100 W
1X
1Z
1#
#4540
0#
#4545
0S
b1011 Y
0X
b1101 W
1#
#4550
0#
#4555
b1110 W
1X
1#
#4560
0#
#4565
b1010 Y
0X
b1111 W
1#
#4570
0#
#4575
b0 W
1X
1#
#4580
0#
#4585
1C
1T
b1001 Y
0X
b1 W
1#
#4590
0#
#4595
b10 W
1X
1#
#4600
0#
#4605
1!
0C
1\
0T
b1000 Y
0X
b11 W
1#
#4610
0#
#4615
b100 W
1X
1#
#4620
0#
#4625
b111 Y
0X
b101 W
1#
#4630
0#
#4635
b110 W
1X
1#
#4640
0#
#4645
b110 Y
0X
b111 W
1#
#4650
0#
#4655
b1000 W
1X
1#
#4660
0#
#4665
1A
1U
b101 Y
0X
b1001 W
1#
#4670
0#
#4675
b1010 W
1X
1#
#4680
0#
#4685
0"
0A
0[
0U
b100 Y
0X
b1011 W
1#
#4690
0#
#4695
b1100 W
1X
1#
#4700
0#
#4705
b11 Y
0X
b1101 W
1#
#4710
0#
#4715
b1110 W
1X
1#
#4720
0#
#4725
b10 Y
0X
b1111 W
1#
#4730
0#
#4735
b0 W
1X
1#
#4740
0#
#4745
b1 Y
0X
b1 W
1#
#4750
0#
#4755
b10 W
1X
1#
#4760
0#
#4765
1R
b0 Y
0X
b11 W
1#
#4770
0#
#4775
b100 W
1X
0Z
1#
#4780
0#
#4785
0R
b1 Y
0X
b101 W
1#
#4790
0#
#4795
b110 W
1X
1#
#4800
0#
#4805
b10 Y
0X
b111 W
1#
#4810
0#
#4815
b1000 W
1X
1#
#4820
0#
#4825
b11 Y
0X
b1001 W
1#
#4830
0#
#4835
b1010 W
1X
1#
#4840
0#
#4845
b100 Y
0X
b1011 W
1#
#4850
0#
#4855
b1100 W
1X
1#
#4860
0#
#4865
1B
1U
b101 Y
0X
b1101 W
1#
#4870
0#
#4875
b1110 W
1X
1#
#4880
0#
#4885
1"
0B
1[
0U
b110 Y
0X
b1111 W
1#
#4890
0#
#4895
b0 W
1X
1#
#4900
0#
#4905
b111 Y
0X
b1 W
1#
#4910
0#
#4915
b10 W
1X
1#
#4920
0#
#4925
b1000 Y
0X
b11 W
1#
#4930
0#
#4935
b100 W
1X
1#
#4940
0#
#4945
1D
1T
b1001 Y
0X
b101 W
1#
#4950
0#
#4955
b110 W
1X
1#
#4960
0#
#4965
0!
0D
0\
0T
b1010 Y
0X
b111 W
1#
#4970
0#
#4975
b1000 W
1X
1#
#4980
0#
#4985
b1011 Y
0X
b1001 W
1#
#4990
0#
#4995
b1010 W
1X
1#
#5000
0#
#5005
1S
b1100 Y
0X
b1011 W
1#
#5010
0#
#5015
b1100 W
1X
1Z
1#
#5020
0#
#5025
0S
b1011 Y
0X
b1101 W
1#
#5030
0#
#5035
b1110 W
1X
1#
#5040
0#
#5045
b1010 Y
0X
b1111 W
1#
#5050
0#
#5055
b0 W
1X
1#
#5060
0#
#5065
1C
1T
b1001 Y
0X
b1 W
1#
#5070
0#
#5075
b10 W
1X
1#
#5080
0#
#5085
1!
0C
1\
0T
b1000 Y
0X
b11 W
1#
#5090
0#
#5095
b100 W
1X
1#
#5100
0#
#5105
b111 Y
0X
b101 W
1#
#5110
0#
